%YAML 1.1
%TAG !u! tag:unity3d.com,2011:
--- !u!1045 &1
EditorBuildSettings:
  m_ObjectHideFlags: 0
  serializedVersion: 2
  m_Scenes:
  - enabled: 1
    path: Assets/Scenes/MainMenu.unity
    guid: f2ac9bcbe77d7af4dbd2507599da1b22
  - enabled: 1
    path: Assets/Scenes/Levels/level_1.unity
    guid: acf51c7cebf485c4f97a3b76af1d7c9e
  - enabled: 1
    path: Assets/Scenes/Levels/level_2.unity
    guid: 12bad93204eac4043b8c8cf97d1f77e0
  - enabled: 1
    path: Assets/Scenes/Levels/level_4.unity
    guid: 9f32fe6c0f535e6418e0e2ee79c69e81
  m_configObjects: {}
